{
  "description": "Default presets for monochromata builds",
  "extends": [
    "config:base",
    ":masterIssue",
    ":automergeAll",
    ":automergeBranch",
    ":pinSkipCi",
    "docker:pinDigests",
    "preview:dockerVersions"
  ],
  "packageRules": [
    {
      "matchPackagePrefixes": ["au.com.dius.pact"],
      "groupName": "pact"
    }
  ]
}
